%YAML 1.1
%TAG !u! tag:unity3d.com,2011:
--- !u!114 &11400000
MonoBehaviour:
  m_ObjectHideFlags: 0
  m_CorrespondingSourceObject: {fileID: 0}
  m_PrefabInstance: {fileID: 0}
  m_PrefabAsset: {fileID: 0}
  m_GameObject: {fileID: 0}
  m_Enabled: 1
  m_EditorHideFlags: 0
  m_Script: {fileID: 11500000, guid: 6c51897c2ed764a42bbf735d2ff01702, type: 3}
  m_Name: Bunny
  m_EditorClassIdentifier: 
  _characterName: Bunny
  jumpChargeSpeed: 30
  jumpChargeMax: 35
  moveSpeed: 6
  colliderOffset: {x: 0, y: 0.35}
  colliderSize: {x: 0.9, y: 1.09}
  canUseDoubleJump: 1
  canUseDash: 0
  jumpEffect: {fileID: 426148771310557249, guid: e5bf0321a682cc7468ae008fe84acee9,
    type: 3}
  landEffect: {fileID: 5475231453232168073, guid: 14aa92e11d872aa429e9edcbce06b2c8,
    type: 3}
  perfectEffect: {fileID: 8517923965296960798, guid: 9d9bd5b2c34fd9244b195f1cd06d19b5,
    type: 3}
  animationJumpStart: {fileID: 7400000, guid: ecc31aa884c8fee49a7858443f89479d, type: 2}
  animationJumpEnd: {fileID: 7400000, guid: 62398516cf9894249a9f5df036ccf3f6, type: 2}
  animationFullPower: {fileID: 7400000, guid: e4859daf47369c249b58742fd6946c35, type: 2}
  animationFalling: {fileID: 7400000, guid: e33b4c6c36d54154a9f9c0941936388f, type: 2}
  animationLanded: {fileID: 7400000, guid: 64a43d93c26c7a24e905f92e89b6791e, type: 2}
  soundStartJump: {fileID: 8300000, guid: f972103efc0b97f47961ab0af32d7d8d, type: 3}
  soundEndJump: {fileID: 8300000, guid: f761f1a7a1361674a8f94633fb1fe4e8, type: 3}
  soundLand: {fileID: 8300000, guid: 74594de2ae8143947badb18a1dded922, type: 3}
  soundCrash: {fileID: 8300000, guid: 5c172af1860dbd549a5c537c78ff6f9e, type: 3}
  soundPerfect: {fileID: 8300000, guid: 97ace823aef82364e894a587b79a5e33, type: 3}
  avatar: {fileID: 6919573414454681291, guid: 150290b87c75b3a4bb602e84b24e82bf, type: 3}
