%YAML 1.1
%TAG !u! tag:unity3d.com,2011:
--- !u!114 &11400000
MonoBehaviour:
  m_ObjectHideFlags: 0
  m_CorrespondingSourceObject: {fileID: 0}
  m_PrefabInstance: {fileID: 0}
  m_PrefabAsset: {fileID: 0}
  m_GameObject: {fileID: 0}
  m_Enabled: 1
  m_EditorHideFlags: 0
  m_Script: {fileID: 11500000, guid: 128df91abe2a1e1448b02f408285019c, type: 3}
  m_Name: Achievement_CollectPowerups10
  m_EditorClassIdentifier: 
  _data:
    Name: Collect_Powerups_10
    Description: Colete 10 Powerups
    Requirement: 10
    Icon: {fileID: 21300010, guid: 51a61cd040c2cce40a0259ddba361763, type: 3}
    TriggerName: Collect_Powerup
    TriggerParameter: 
