%YAML 1.1
%TAG !u! tag:unity3d.com,2011:
--- !u!114 &11400000
MonoBehaviour:
  m_ObjectHideFlags: 0
  m_CorrespondingSourceObject: {fileID: 0}
  m_PrefabInstance: {fileID: 0}
  m_PrefabAsset: {fileID: 0}
  m_GameObject: {fileID: 0}
  m_Enabled: 1
  m_EditorHideFlags: 0
  m_Script: {fileID: 11500000, guid: 128df91abe2a1e1448b02f408285019c, type: 3}
  m_Name: Achievement_UnlockDoggy
  m_EditorClassIdentifier: 
  _data:
    Name: Unlock_Doggy
    Description: Desbloqueie o Cachorrinho
    Requirement: 1
    Icon: {fileID: 21300038, guid: 1725a1db1d0f0a9468cf8993da2c29b7, type: 3}
    TriggerName: Unlock_Character
    TriggerParameter: Doggy
